{
	"info": {
		"_postman_id": "b19cb655-e06c-4ace-8d3b-4b7fe5993e0f",
		"name": "Shab Collection API - Iman sadafi tehrani",
		"schema": "https://schema.getpostman.com/json/collection/v2.0.0/collection.json",
		"_exporter_id": "14746769",
		"_collection_link": "https://winter-water-125605.postman.co/workspace/Shab-Assignment~043b8f3d-f5c0-48e3-908a-43c973ab9fef/collection/14746769-b19cb655-e06c-4ace-8d3b-4b7fe5993e0f?action=share&source=collection_link&creator=14746769"
	},
	"item": [
		{
			"name": "Api-Token Generate",
			"request": {
				"method": "POST",
				"header": [
					{
						"key": "Accept",
						"value": "application/json",
						"type": "text"
					}
				],
				"body": {
					"mode": "formdata",
					"formdata": [
						{
							"key": "email",
							"value": "waelchi.eliza@example.net",
							"type": "text"
						},
						{
							"key": "password",
							"value": "password",
							"type": "text"
						}
					]
				},
				"url": "http://127.0.0.1:8000/api/token/generate/"
			},
			"response": []
		},
		{
			"name": "Api-Token Revoke All",
			"request": {
				"auth": {
					"type": "bearer",
					"bearer": {
						"token": "8|6xC0ByKRj5ofZjOGmymsduyoVYIxw3T0Ho0Z91Ii13f95259"
					}
				},
				"method": "POST",
				"header": [
					{
						"key": "Accept",
						"value": "application/json",
						"type": "text"
					}
				],
				"url": "http://127.0.0.1:8000/api/token/revoke-all"
			},
			"response": []
		},
		{
			"name": "Product Search",
			"request": {
				"method": "GET",
				"header": []
			},
			"response": []
		},
		{
			"name": "My Available Products",
			"request": {
				"method": "GET",
				"header": []
			},
			"response": []
		},
		{
			"name": "Delete Product",
			"request": {
				"method": "GET",
				"header": []
			},
			"response": []
		},
		{
			"name": "Get Order Invoice",
			"protocolProfileBehavior": {
				"disableBodyPruning": true
			},
			"request": {
				"auth": {
					"type": "bearer",
					"bearer": {
						"token": "1|4bfJdrEU6nWy1M2Y8hAqHcopPMMhMD37mBVhMDhg4c1ec664"
					}
				},
				"method": "GET",
				"header": [
					{
						"key": "Accept",
						"value": "application/json",
						"type": "text"
					}
				],
				"body": {
					"mode": "formdata",
					"formdata": [
						{
							"key": "quantity",
							"value": "1",
							"type": "text"
						}
					]
				},
				"url": "http://127.0.0.1:8000/api/order/cart"
			},
			"response": []
		},
		{
			"name": "Add product to order",
			"request": {
				"auth": {
					"type": "bearer",
					"bearer": {
						"token": "1|4bfJdrEU6nWy1M2Y8hAqHcopPMMhMD37mBVhMDhg4c1ec664"
					}
				},
				"method": "POST",
				"header": [
					{
						"key": "Accept",
						"value": "application/json",
						"type": "text"
					}
				],
				"url": "http://127.0.0.1:8000/api/order/add/5"
			},
			"response": []
		},
		{
			"name": "Remove product from order",
			"request": {
				"auth": {
					"type": "bearer",
					"bearer": {
						"token": "1|4bfJdrEU6nWy1M2Y8hAqHcopPMMhMD37mBVhMDhg4c1ec664"
					}
				},
				"method": "POST",
				"header": [
					{
						"key": "Accept",
						"value": "application/json",
						"type": "text"
					}
				],
				"url": "http://127.0.0.1:8000/api/order/add/5"
			},
			"response": []
		},
		{
			"name": "Update transport cost to order",
			"request": {
				"auth": {
					"type": "bearer",
					"bearer": {
						"token": "2|CoFPKNT1vfh9N0Krfl1a2eIwlaaaMwQ58Bq2pmI487aed21f"
					}
				},
				"method": "PATCH",
				"header": [
					{
						"key": "Accept",
						"value": "application/json",
						"type": "text"
					}
				],
				"body": {
					"mode": "formdata",
					"formdata": []
				},
				"url": "http://127.0.0.1:8000/api/order/add-transport-cost/5"
			},
			"response": []
		},
		{
			"name": "Checkout Order",
			"request": {
				"auth": {
					"type": "bearer",
					"bearer": {
						"token": "2|CoFPKNT1vfh9N0Krfl1a2eIwlaaaMwQ58Bq2pmI487aed21f"
					}
				},
				"method": "POST",
				"header": [
					{
						"key": "Accept",
						"value": "application/json",
						"type": "text"
					}
				],
				"body": {
					"mode": "formdata",
					"formdata": []
				},
				"url": "http://127.0.0.1:8000/api/order/checkout/1"
			},
			"response": []
		},
		{
			"name": "Upload product data",
			"request": {
				"auth": {
					"type": "bearer",
					"bearer": {
						"token": "0bsc6qcKdPkYIrTw5pCKqJ6pw7Lq9ppSuwEiIYmXcbb2b77a"
					}
				},
				"method": "POST",
				"header": [
					{
						"key": "Accept",
						"value": "application/json",
						"type": "text"
					}
				],
				"body": {
					"mode": "raw",
					"raw": "{\n  \"data\": [\n    {\n      \"title\": \"Product 1 test upload\",\n      \"price\": 200000000,\n      \"owner_product_id\": \"1234\",\n      \"transport_cost\": 300000,\n      \"image\": \"base64_encoded_image\"\n    }\n  ]\n}\n",
					"options": {
						"raw": {
							"language": "json"
						}
					}
				},
				"url": "http://127.0.0.1:8000/api/product/upload-data"
			},
			"response": []
		}
	]
}